String Distance Calculation with Tidy Data Principles • tidystringdist
…
tidy_string_dist

Once you’ve got this data.frame, you can use tidy_string_dist() to compute string distance. This function takes a data.frame, the two columns containing the strings, and one or more stringdist methods.

Note that if you’ve used the tidy_comb function to create your data.frame, you won’t need to set the column names.

library(dplyr)
data(starwars)
tidy_comb_sw <- tidy_comb_all(starwars, name)
tidy_stringdist(tidy_comb_sw)
#> Warning in do_dist(a = b, b = a, method = method, weight = weight, q =
#> q, : Non-printable ascii or non-ascii characters in soundex. Results may be
#> unreliable. See ?printable_ascii.
#> # A tibble: 3,741 x 12
#>    V1    V2      osa    lv    dl hamming   lcs qgram cosine jaccard    jw
#>  * <chr> <chr> <dbl> <dbl> <dbl>   <dbl> <dbl> <dbl>  <dbl>   <dbl> <dbl>
#>  1 Luke… C-3PO    14    14    14     Inf    19    19  1       1     1    
#>  2 Luke… R2-D2    14    14    14     Inf    19    19  1       1     1    
#>  3 Luke… Dart…    11    11    11     Inf    17    17  0.615   0.75  0.575
#>  4 Luke… Leia…    11    11    11     Inf    17    15  0.586   0.667 0.534
#>  5 Luke… Owen…    12    12    12     Inf    15    11  0.503   0.571 0.462
#>  6 Luke… Beru…    16    16    16     Inf    22    18  0.517   0.667 0.466
#>  7 Luke… R5-D4    14    14    14     Inf    19    19  1       1     1    
#>  8 Luke… Bigg…    13    13    13     Inf    21    19  0.590   0.667 0.573
#>  9 Luke… Obi-…    14    14    14      14    24    22  0.809   0.842 0.635
#> 10 Luke… Anak…     5     5     5     Inf     8     8  0.206   0.357 0.282
#> # ... with 3,731 more rows, and 1 more variable: soundex <dbl>

Default call compute all the methods. You can use specific method with the method argument:

tidy_stringdist(tidy_comb_sw, method = c("osa","jw"))
#> # A tibble: 3,741 x 4
#>    V1             V2                   osa    jw
#>  * <chr>          <chr>              <dbl> <dbl>
#>  1 Luke Skywalker C-3PO                 14 1    
#>  2 Luke Skywalker R2-D2                 14 1    
#>  3 Luke Skywalker Darth Vader           11 0.575
#>  4 Luke Skywalker Leia Organa           11 0.534
#>  5 Luke Skywalker Owen Lars             12 0.462
#>  6 Luke Skywalker Beru Whitesun lars    16 0.466
#>  7 Luke Skywalker R5-D4                 14 1    
#>  8 Luke Skywalker Biggs Darklighter     13 0.573
#>  9 Luke Skywalker Obi-Wan Kenobi        14 0.635
#> 10 Luke Skywalker Anakin Skywalker       5 0.282
#> # ... with 3,731 more rows
…
